Test
…
company <- c('Dell','Lenovo','HP','Asus','Acer', "Apple")
data <- data %>% filter(Company %in% company)
data

## # A tibble: 1,150 x 13
##    laptop_ID Company Product TypeName Inches ScreenResolution Cpu   Ram   Memory
##        <dbl> <chr>   <chr>   <chr>     <dbl> <chr>            <chr> <chr> <chr> 
##  1         1 Apple   MacBoo~ Ultrabo~   13.3 IPS Panel Retin~ Inte~ 8GB   128GB~
##  2         2 Apple   Macboo~ Ultrabo~   13.3 1440x900         Inte~ 8GB   128GB~
##  3         3 HP      250 G6  Notebook   15.6 Full HD 1920x10~ Inte~ 8GB   256GB~
##  4         4 Apple   MacBoo~ Ultrabo~   15.4 IPS Panel Retin~ Inte~ 16GB  512GB~
##  5         5 Apple   MacBoo~ Ultrabo~   13.3 IPS Panel Retin~ Inte~ 8GB   256GB~
##  6         6 Acer    Aspire~ Notebook   15.6 1366x768         AMD ~ 4GB   500GB~
##  7         7 Apple   MacBoo~ Ultrabo~   15.4 IPS Panel Retin~ Inte~ 16GB  256GB~
##  8         8 Apple   Macboo~ Ultrabo~   13.3 1440x900         Inte~ 8GB   256GB~
##  9         9 Asus    ZenBoo~ Ultrabo~   14   Full HD 1920x10~ Inte~ 16GB  512GB~
## 10        10 Acer    Swift 3 Ultrabo~   14   IPS Panel Full ~ Inte~ 8GB   256GB~
## # ... with 1,140 more rows, and 4 more variables: Gpu <chr>, OpSys <chr>,
## #   Weight <chr>, Price_euros <dbl>
…
## # A tibble: 6 x 2
##   Company     n
##   <fct>   <int>
## 1 Dell      297
## 2 Lenovo    297
## 3 HP        274
## 4 Asus      158
## 5 Acer      103
## 6 Apple      21

data$Company <- relevel(data$Company, 'Dell')

data %>% count(Product, sort = TRUE)

## # A tibble: 506 x 2
##    Product                n
##    <fct>              <int>
##  1 XPS 13                30
##  2 Inspiron 3567         29
##  3 250 G6                21
##  4 Legion Y520-15IKBN    19
##  5 Vostro 3568           19
##  6 Inspiron 5570         18
##  7 ProBook 450           18
##  8 Alienware 17          15
##  9 Inspiron 5567         14
## 10 Aspire 3              12
## # ... with 496 more rows
…
data$ScreenResolution <- relevel(data$ScreenResolution, '1920x1080')

data %>% count(Gpu_Series, sort = TRUE)

## # A tibble: 102 x 2
##    Gpu_Series           n
##    <fct>            <int>
##  1 HD Graphics 620    250
##  2 HD Graphics 520    160
##  3 UHD Graphics 620    68
##  4 GeForce GTX 1050    53
##  5 GeForce 940MX       41
##  6 Radeon 530          41
##  7 HD Graphics 400     33
##  8 HD Graphics 500     33
##  9 GeForce GTX 1060    31
## 10 GeForce 930MX       25
## # ... with 92 more rows
…
data %>% count(Gpu_Type, sort = TRUE)

## # A tibble: 3 x 2
##   Gpu_Type     n
##   <fct>    <int>
## 1 Intel      642
## 2 Nvidia     329
## 3 AMD        179

data$Gpu_Type <- relevel(factor(data$Gpu_Type), 'Intel')

data %>% count(Gpu_Series, sort = TRUE)

## # A tibble: 102 x 2
##    Gpu_Series           n
##    <fct>            <int>
##  1 HD Graphics 620    250
##  2 HD Graphics 520    160
##  3 UHD Graphics 620    68
##  4 GeForce GTX 1050    53
##  5 GeForce 940MX       41
##  6 Radeon 530          41
##  7 HD Graphics 400     33
##  8 HD Graphics 500     33
##  9 GeForce GTX 1060    31
## 10 GeForce 930MX       25
## # ... with 92 more rows
data$Gpu_Series <- relevel(factor(data$Gpu_Series), 'HD Graphics 620')

data %>% count(Cpu_Type, sort = TRUE)

## # A tibble: 2 x 2
##   Cpu_Type     n
##   <chr>    <int>
## 1 Intel     1088
## 2 AMD         62

data$Cpu_Type <- relevel(factor(data$Cpu_Type), 'Intel')

data %>% count(Cpu_Series, sort = TRUE)

## # A tibble: 85 x 2
##    Cpu_Series         n
##    <chr>          <int>
##  1 Core i5 7200U    175
##  2 Core i7 7500U    120
##  3 Core i7 7700HQ   113
##  4 Core i3 6006U     80
##  5 Core i5 8250U     71
##  6 Core i7 8550U     71
##  7 Core i5 6200U     51
##  8 Core i7 6500U     42
##  9 Core i3 7100U     35
## 10 Core i7 6700HQ    32
## # ... with 75 more rows
…
